<?xml version="1.0" encoding="utf-8"?>
<!-- Generator: Adobe Illustrator 23.0.3, SVG Export Plug-In . SVG Version: 6.00 Build 0)  -->
<svg version="1.1" id="TRINITY_COLLEGE_of_ARTS__x26__SCIENCES_1_"
	 xmlns="http://www.w3.org/2000/svg" xmlns:xlink="http://www.w3.org/1999/xlink" x="0px" y="0px" viewBox="0 0 283 55"
	 style="enable-background:new 0 0 283 55;" xml:space="preserve">
<style type="text/css">
	.st0{fill:#FFFFFF;}
	.st1{font-family:'OpenSans';}
	.st2{font-size:26px;}
	.st3{letter-spacing:2;}
	.st4{font-family:'OpenSans-Italic';}
</style>
<text id="TRINITY_COLLEGE_of_ARTS__x26__SCIENCES" transform="matrix(1 0 0 1 0 21)"><tspan x="0" y="0" class="st0 st1 st2 st3">TRINITY COLLEGE </tspan><tspan x="251.78" y="0" class="st0 st4 st2 st3">of</tspan><tspan x="0" y="34" class="st0 st1 st2 st3">ARTS &amp; SCIENCES</tspan></text>
</svg>
